id,language,filename,video_id
1,pt,"",1
2,pt,Bergman01.vtt,2
3,pt,Bergman02.vtt,3
4,pt,Bergman03.vtt,4
5,pt,Bergman04.vtt,5
6,pt,Bergman05.vtt,6
7,pt,Bergman06.vtt,7
8,pt,Bergman07.vtt,8
9,pt,Bergman08.vtt,9
10,pt,Bergman09.vtt,10
11,pt,Bergman10.vtt,11
12,pt,"",12
13,pt,"",13
14,pt,"",14
15,pt,"",15
16,pt,"",16
17,pt,"",17
18,pt,"",18
19,pt,"",19
20,pt,"",20
21,pt,"",21
22,pt,"",22
23,pt,"",23
24,pt,"",24
25,pt,"",25
26,pt,"",26
27,pt,"",27
28,pt,Caze01.vtt,28
29,pt,Caze02.vtt,29
30,pt,Caze03.vtt,30
31,pt,Caze04.vtt,31
32,pt,Caze05.vtt,32
33,pt,Caze06.vtt,33
34,pt,Caze07.vtt,34
35,pt,Caze08.vtt,35
36,pt,Caze09.vtt,36
37,pt,Caze10.vtt,37
38,pt,Caze11.vtt,38
39,pt,Caze12.vtt,39
40,pt,Caze13a.vtt,40
41,pt,Caze13bJosa.vtt,41
42,pt,Caze13bBinho.vtt,42
43,pt,Caze13bMarcia.vtt,43
44,pt,Caze13bMaria.vtt,44
45,pt,Caze13bLeticia.vtt,45
46,pt,Caze13c.vtt,46
47,pt,"",47
48,pt,"",48
49,pt,Daniel01.vtt,49
50,pt,Daniel02.vtt,50
51,pt,Daniel03.vtt,51
52,pt,Daniel04.vtt,52
53,pt,Daniel05.vtt,53
54,pt,Daniel06.vtt,54
55,pt,Daniel07.vtt,55
56,pt,Daniel08.vtt,56
57,pt,Daniel09.vtt,57
58,pt,Daniel10.vtt,58
59,pt,Daniel11.vtt,59
60,pt,Diga01.vtt,60
61,pt,Diga02.vtt,61
62,pt,Diga03.vtt,62
63,pt,Diga04.vtt,63
64,pt,Diga05.vtt,64
65,pt,Diga06.vtt,65
66,pt,Diga07.vtt,66
67,pt,Diga08.vtt,67
68,pt,Diga09.vtt,68
69,pt,Diga10.vtt,69
70,pt,Diga11.vtt,70
71,pt,Diga12.vtt,71
72,pt,Diga13.vtt,72
73,pt,Diga14.vtt,73
74,pt,"",74
75,pt,Drao01.vtt,75
76,pt,Drao02.vtt,76
77,pt,Drao03.vtt,77
78,pt,Drao04.vtt,78
79,pt,Drao05.vtt,79
80,pt,Drao06.vtt,80
81,pt,Drao07.vtt,81
82,pt,Drao08.vtt,82
83,pt,Drao09.vtt,83
84,pt,Drao10.vtt,84
85,pt,Drao11.vtt,85
86,pt,Drao12.vtt,86
87,pt,"",87
88,pt,"",88
89,pt,Julio01.vtt,89
90,pt,Julio02.vtt,90
91,pt,Julio03.vtt,91
92,pt,Julio04.vtt,92
93,pt,Julio05.vtt,93
94,pt,Julio06.vtt,94
95,pt,Julio07.vtt,95
96,pt,Julio08.vtt,96
97,pt,Julio09.vtt,97
98,pt,Julio10.vtt,98
99,pt,Julio11.vtt,99
100,pt,Julio12.vtt,100
101,pt,Julio13.vtt,101
102,pt,Sabrina01.vtt,102
103,pt,Sabrina02.vtt,103
104,pt,Sabrina03.vtt,104
105,pt,Sabrina04.vtt,105
106,pt,Sabrina05.vtt,106
107,pt,Sabrina06.vtt,107
108,pt,Sabrina07.vtt,108
109,pt,Sabrina08.vtt,109
110,pt,Sabrina09.vtt,110
111,pt,Sabrina10.vtt,111
112,pt,Sabrina11.vtt,112
113,pt,"",113
